ATAC pseudobulk analysis
…
  #add column mean_log2fc
  sig_genes_list <- sig_genes_list %>% group_by(gene) %>% mutate(mean_log2fc = mean(log2fc))
  #add geom_mean_adj_pval
  sig_genes_list <- sig_genes_list %>% group_by(gene) %>% mutate(geom_mean_adj_pval = exp(mean(log(pvalue))))
  #keep only unique rows gene_name and grouping, but keep other rows as well
  sig_genes_list <- sig_genes_list %>% distinct(gene, direction, .keep_all = TRUE)
  
  return(sig_genes_list)
}

# Usage
df <- find_significant_genes(all_comparisons, grouping_5[[1]], grouping_5[[2]])
print(df)

## # A tibble: 21,961 × 6
## # Groups:   gene [21,961]
##    gene                direction log2fc    pvalue mean_log2fc geom_mean_adj_pval
##    <chr>               <chr>      <dbl>     <dbl>       <dbl>              <dbl>
##  1 chr11:82626780-826… down       -6.17 1.96e-121       -3.26           1.51e-46
##  2 chr6:125979531-125… down       -5.49 5.34e-117       -2.39           1.28e-35
##  3 chr14:119438295-11… down       -5.21 9.98e-116       -2.84           4.83e-46
##  4 chr11:106300067-10… up          6.36 2.32e-111        3.02           2.48e-41
##  5 chr3:102696005-102… down       -5.49 4.65e-111       -3.23           6.65e-50
##  6 chr1:167578493-167… up          5.36 1.03e-110        4.40           1.13e-83
##  7 chr9:30252619-3025… up          5.40 6.39e-108        3.80           9.69e-65
##  8 chr2:135024777-135… up          5.83 2.26e-106        4.53           3.62e-75
##  9 chr14:59677464-596… down       -6.11 3.98e-106       -3.32           2.40e-40
## 10 chr10:87605469-876… up          5.86 1.91e-104        3.90           2.62e-56
## # ℹ 21,951 more rows
…
